[gd_scene load_steps=3 format=2]

[ext_resource path="res://Camera/Camera.gd" type="Script" id=1]
[ext_resource path="res://Camera/Background.tscn" type="PackedScene" id=2]

[node name="Camera" type="Node2D"]

pause_mode = 2
script = ExtResource( 1 )
_sections_unfolded = [ "Pause" ]

[node name="Camera2D" type="Camera2D" parent="." index="0"]

anchor_mode = 1
rotating = false
current = true
zoom = Vector2( 1, 1 )
limit_left = -100000000
limit_top = -10000000
limit_right = 100000000
limit_bottom = 100000000
limit_smoothed = false
drag_margin_h_enabled = false
drag_margin_v_enabled = false
smoothing_enabled = false
smoothing_speed = 5.0
offset_v = 0.0
offset_h = 0.0
drag_margin_left = 0.2
drag_margin_top = 0.2
drag_margin_right = 0.2
drag_margin_bottom = 0.2
editor_draw_screen = true
editor_draw_limits = false
editor_draw_drag_margin = false
_sections_unfolded = [ "Drag Margin", "Limit", "Offset", "Smoothing" ]

[node name="ParallaxBackground" parent="." index="1" instance=ExtResource( 2 )]


