[gd_scene load_steps=3 format=2]

[ext_resource path="res://UI/Windows/Window.tscn" type="PackedScene" id=1]
[ext_resource path="res://UI/Windows/CloseButton.cs" type="Script" id=2]

[node name="Window" index="0" instance=ExtResource( 1 )]

[node name="Bar" parent="Content/TitleBar" index="0"]

margin_right = 353.0

[node name="CloseButton" type="Button" parent="Content/TitleBar" index="1"]

anchor_left = 0.0
anchor_top = 0.0
anchor_right = 0.0
anchor_bottom = 0.0
margin_left = 357.0
margin_right = 377.0
margin_bottom = 20.0
rect_pivot_offset = Vector2( 0, 0 )
rect_clip_content = false
focus_mode = 2
mouse_filter = 0
mouse_default_cursor_shape = 0
size_flags_horizontal = 1
size_flags_vertical = 1
toggle_mode = false
enabled_focus_mode = 2
shortcut = null
group = null
text = "X"
flat = false
align = 1
script = ExtResource( 2 )


