[gd_scene load_steps=2 format=2]

[ext_resource path="res://UI/Windows/Bar.cs" type="Script" id=1]

[node name="Window" type="PanelContainer" index="0"]

anchor_left = 0.0
anchor_top = 0.0
anchor_right = 0.0
anchor_bottom = 0.0
margin_right = 391.0
margin_bottom = 331.0
rect_pivot_offset = Vector2( 0, 0 )
rect_clip_content = false
mouse_filter = 1
mouse_default_cursor_shape = 0
size_flags_horizontal = 1
size_flags_vertical = 1
_sections_unfolded = [ "Margin", "Mouse" ]

[node name="Content" type="VBoxContainer" parent="." index="0"]

anchor_left = 0.0
anchor_top = 0.0
anchor_right = 0.0
anchor_bottom = 0.0
margin_left = 7.0
margin_top = 7.0
margin_right = 384.0
margin_bottom = 324.0
rect_pivot_offset = Vector2( 0, 0 )
rect_clip_content = false
mouse_filter = 1
mouse_default_cursor_shape = 0
size_flags_horizontal = 1
size_flags_vertical = 1
alignment = 0

[node name="TitleBar" type="HBoxContainer" parent="Content" index="0"]

anchor_left = 0.0
anchor_top = 0.0
anchor_right = 0.0
anchor_bottom = 0.0
margin_right = 377.0
margin_bottom = 20.0
rect_pivot_offset = Vector2( 0, 0 )
rect_clip_content = false
mouse_filter = 1
mouse_default_cursor_shape = 0
size_flags_horizontal = 1
size_flags_vertical = 0
alignment = 0
_sections_unfolded = [ "Anchor", "Grow Direction", "Margin", "Rect", "Size Flags" ]

[node name="Bar" type="Panel" parent="Content/TitleBar" index="0"]

anchor_left = 0.0
anchor_top = 0.0
anchor_right = 0.0
anchor_bottom = 0.0
margin_right = 377.0
margin_bottom = 20.0
rect_min_size = Vector2( 0, 20 )
rect_pivot_offset = Vector2( 0, 0 )
rect_clip_content = false
mouse_filter = 0
mouse_default_cursor_shape = 13
size_flags_horizontal = 3
size_flags_vertical = 1
script = ExtResource( 1 )
_sections_unfolded = [ "Mouse", "Rect", "Size Flags", "Visibility" ]

[node name="Title" type="Label" parent="Content/TitleBar/Bar" index="0"]

anchor_left = 0.0
anchor_top = 0.0
anchor_right = 0.0
anchor_bottom = 0.0
margin_left = 4.0
margin_top = 3.0
margin_right = 297.0
margin_bottom = 17.0
rect_pivot_offset = Vector2( 0, 0 )
rect_clip_content = false
mouse_filter = 2
mouse_default_cursor_shape = 0
size_flags_horizontal = 3
size_flags_vertical = 4
text = "Title Text Goes Here"
percent_visible = 1.0
lines_skipped = 0
max_lines_visible = -1
_sections_unfolded = [ "Mouse", "Size Flags" ]


