{
	"Sol System": {
		"pos_x": 0,
		"pos_y": 0,
		"orbitals": {
			"Sol": {
				"distance": 0.0,
				"scale": 2.0
			},
			"Mercury": {
				"distance": 0.387,
				"scale": 0.5
			},
			"Venus": {
				"distance": 0.718,
				"scale": 0.5
			},
			"Earth": {
				"distance": 1.0,
				"scale": 0.5,
				"orbitals": {
					"Luna": {
						"distance": 0.0025,
						"scale" : 0.25
					}
				}
			},
			"Mars": {
				"distance": 1.523,
				"scale": 0.5
			},
			"Jupiter": {
				"distance": 5.2,
				"scale": 1.0
			},
			"Saturn": {
				"distance": 9.5,
				"scale": 1.0
			},
			"Uranus": {
				"distance": 19.2,
				"scale": 1.0
			},
			"Neptune": {
				"distance": 30.1,
				"scale": 1.0
			}
		}
	}
}