[gd_scene load_steps=3 format=2]

[ext_resource path="res://Time/Calender.cs" type="Script" id=1]
[ext_resource path="res://Time/Ticker.cs" type="Script" id=2]

[node name="Time" type="Node" index="0"]

[node name="Calender" type="Node" parent="." index="0"]

pause_mode = 2
script = ExtResource( 1 )
_sections_unfolded = [ "Pause" ]

[node name="Ticker" type="Timer" parent="." index="1"]

pause_mode = 2
process_mode = 1
wait_time = 1.0
one_shot = false
autostart = true
script = ExtResource( 2 )
_sections_unfolded = [ "Pause" ]


