[gd_scene load_steps=4 format=2]

[ext_resource path="res://Map/Orbital/Orbital.gd" type="Script" id=1]
[ext_resource path="res://Map/Orbital/OrbitPath.gd" type="Script" id=2]
[ext_resource path="res://Map/Marker.tscn" type="PackedScene" id=3]

[node name="Orbiter" type="Position2D"]

script = ExtResource( 1 )
_sections_unfolded = [ "Transform" ]
retrograde = false
orbital_distance = 1

[node name="OrbitPath" type="Node2D" parent="." index="0"]

z_index = -1
script = ExtResource( 2 )
_sections_unfolded = [ "Transform", "Z Index" ]

[node name="Sprite" parent="." index="1" instance=ExtResource( 3 )]


