[gd_scene load_steps=5 format=2]

[ext_resource path="res://Map/System/SystemPin.gd" type="Script" id=1]
[ext_resource path="res://Map/Marker.tscn" type="PackedScene" id=2]
[ext_resource path="res://Map/System/Area2D.gd" type="Script" id=3]

[sub_resource type="CircleShape2D" id=1]

custom_solver_bias = 0.0
radius = 12.8283

[node name="SystemPin" type="Position2D" index="0"]

script = ExtResource( 1 )
_sections_unfolded = [ "Pause" ]

[node name="Sprite" parent="." index="0" instance=ExtResource( 2 )]

self_modulate = Color( 0.96875, 0.686326, 0.0870361, 1 )

[node name="Area2D" type="Area2D" parent="." index="1"]

pause_mode = 2
input_pickable = true
gravity_vec = Vector2( 0, 1 )
gravity = 98.0
linear_damp = 0.1
angular_damp = 1.0
audio_bus_override = false
audio_bus_name = "Master"
script = ExtResource( 3 )
_sections_unfolded = [ "Collision", "Pause" ]

[node name="CollisionShape2D" type="CollisionShape2D" parent="Area2D" index="0"]

visible = false
shape = SubResource( 1 )
_sections_unfolded = [ "Pause" ]


